@startuml

title __JSON Serialization's Class Diagram__\n


  namespace fr.cnam.foad.nfa035.badges.wallet.dao {
    namespace impl {
      namespace json {
        class fr.cnam.foad.nfa035.badges.wallet.dao.impl.json.JSONBadgeWalletDAOImpl {
            {static} - LOG : Logger
            - walletDatabase : File
            + JSONBadgeWalletDAOImpl()
            + addBadge()
            + addBadge()
            + getBadge()
            + getBadgeFromMetadata()
            + getWalletMetadata()
            - getWalletMetadata()
        }
      }
    }
  }


  namespace fr.cnam.foad.nfa035.badges.wallet.dao {
    interface fr.cnam.foad.nfa035.badges.wallet.dao.DirectAccessBadgeWalletDAO {
        {abstract} + addBadge()
        {abstract} + getBadgeFromMetadata()
        {abstract} + getWalletMetadata()
    }
  }

  fr.cnam.foad.nfa035.badges.wallet.dao.impl.json.JSONBadgeWalletDAOImpl .up.|> fr.cnam.foad.nfa035.badges.wallet.dao.DirectAccessBadgeWalletDAO


  namespace fr.cnam.foad.nfa035.badges.fileutils {
    namespace streaming.serializer{
      namespace impl.db {
            namespace json {
              class fr.cnam.foad.nfa035.badges.fileutils.streaming.serializer.impl.db.json.JSONWalletDeserializerDAImpl {
                  ~ metas : Set<DigitalBadge>
                  {static} - LOG : Logger
                  - sourceOutputStream : OutputStream
                  + JSONWalletDeserializerDAImpl()
                  + deserialize()
                  + deserialize()
                  + getDeserializingStream()
                  + getSourceOutputStream()
                  + setSourceOutputStream()
              }
            }
      }
    }
  }
  

  namespace fr.cnam.foad.nfa035.badges.fileutils {
    namespace streaming.serializer {
      namespace impl.db {
        namespace json {
          class fr.cnam.foad.nfa035.badges.fileutils.streaming.serializer.impl.db.json.JSONWalletSerializerDAImpl {
              ~ metas : Set<DigitalBadge>
              + JSONWalletSerializerDAImpl()
              + getSerializingStream()
              + getSourceInputStream()
              + serialize()
          }
        }
      }
    }
  }
  

  namespace fr.cnam.foad.nfa035.badges.fileutils {
    namespace streaming.serializer {
      namespace impl.db {
          namespace json {
              class fr.cnam.foad.nfa035.badges.fileutils.streaming.serializer.impl.db.json.MetadataDeserializerJSONImpl {
                  {static} - LOG : Logger
                  + deserialize()
              }
          }
      }
    }
  }
  


  namespace fr.cnam.foad.nfa035.badges.fileutils {
      namespace streaming.serializer {
        abstract class fr.cnam.foad.nfa035.badges.fileutils.streaming.serializer.AbstractStreamingImageSerializer {
            + serialize()
        }
    }
  }

  namespace fr.cnam.foad.nfa035.badges.fileutils {
      namespace streaming.serializer {
          interface fr.cnam.foad.nfa035.badges.fileutils.streaming.serializer.DirectAccessDatabaseDeserializer {
            {abstract} + deserialize()
            {abstract} + getSourceOutputStream()
            {abstract} + setSourceOutputStream()
          }
      }
  }



  namespace fr.cnam.foad.nfa035.badges.fileutils {
      namespace streaming.serializer {
          interface fr.cnam.foad.nfa035.badges.fileutils.streaming.serializer.ImageStreamingSerializer {
            {abstract} + getSerializingStream()
            {abstract} + getSourceInputStream()
            {abstract} + serialize()
          }
      }
  }


  namespace fr.cnam.foad.nfa035.badges.fileutils {
      namespace streaming.serializer {
        interface fr.cnam.foad.nfa035.badges.fileutils.streaming.serializer.MetadataDeserializer {
            {abstract} + deserialize()
        }
      }
  }



  namespace fr.cnam.foad.nfa035.badges.fileutils {
    namespace streaming.serializer.impl.db {
        class fr.cnam.foad.nfa035.badges.fileutils.streaming.serializer.impl.db.MetadataDeserializerDatabaseImpl {
            {static} - LOG : Logger
            + deserialize()
            {static} + readLastLine()
        }
      }
  }

  fr.cnam.foad.nfa035.badges.fileutils.streaming.serializer.AbstractStreamingImageSerializer .up.|> fr.cnam.foad.nfa035.badges.fileutils.streaming.serializer.ImageStreamingSerializer
  fr.cnam.foad.nfa035.badges.fileutils.streaming.serializer.impl.db.json.JSONWalletDeserializerDAImpl .up.|> fr.cnam.foad.nfa035.badges.fileutils.streaming.serializer.DirectAccessDatabaseDeserializer
  fr.cnam.foad.nfa035.badges.fileutils.streaming.serializer.impl.db.json.JSONWalletSerializerDAImpl -up-|> fr.cnam.foad.nfa035.badges.fileutils.streaming.serializer.AbstractStreamingImageSerializer
  fr.cnam.foad.nfa035.badges.fileutils.streaming.serializer.impl.db.json.MetadataDeserializerJSONImpl .up.|> fr.cnam.foad.nfa035.badges.fileutils.streaming.serializer.MetadataDeserializer
  fr.cnam.foad.nfa035.badges.fileutils.streaming.serializer.impl.db.json.MetadataDeserializerJSONImpl --|> fr.cnam.foad.nfa035.badges.fileutils.streaming.serializer.impl.db.MetadataDeserializerDatabaseImpl


  namespace fr.cnam.foad.nfa035.badges.fileutils {
    namespace streaming.media {
        namespace impl {
          namespace json {
            class fr.cnam.foad.nfa035.badges.fileutils.streaming.media.impl.json.JSONWalletFrame {
                {static} - LOG : Logger
                - encodedImageOutput : FileOutputStream
                + JSONWalletFrame()
                + getEncodedImageOutput()
            }
          }
        }
    }
  }


  fr.cnam.foad.nfa035.badges.fileutils.streaming.media.impl.json.JSONWalletFrame -up-|> fr.cnam.foad.nfa035.badges.fileutils.streaming.media.impl.WalletFrame

  namespace fr.cnam.foad.nfa035.badges.fileutils {
    namespace streaming.media {
        interface fr.cnam.foad.nfa035.badges.fileutils.streaming.media.WalletFrameMedia {
            {abstract} + getNumberOfLines()
            {abstract} + incrementLines()
        }
    }
  }


  namespace fr.cnam.foad.nfa035.badges.fileutils {
    namespace streaming.media {
        namespace impl {
          class fr.cnam.foad.nfa035.badges.fileutils.streaming.media.impl.WalletFrame {
              {static} - LOG : Logger
              - encodedImageOutput : FileOutputStream
              - encodedImageReader : BufferedReader
              - numberOfLines : long
              + WalletFrame()
              + getEncodedImageInput()
              + getEncodedImageOutput()
              + getEncodedImageReader()
              + getNumberOfLines()
              + incrementLines()
              # setNumberOfLines()
          }
        }
    }
  }

  fr.cnam.foad.nfa035.badges.fileutils.streaming.media.impl.WalletFrame .up.|> fr.cnam.foad.nfa035.badges.fileutils.streaming.media.WalletFrameMedia

  fr.cnam.foad.nfa035.badges.wallet.dao.impl.json.JSONBadgeWalletDAOImpl .up.> fr.cnam.foad.nfa035.badges.fileutils

@enduml
