@startuml

title __VIEW's Class Diagram__\n

  namespace fr.cnam.foad.nfa035.badges.gui {
    namespace view {
      class fr.cnam.foad.nfa035.badges.gui.view.AddBadgeDialog {
          - buttonCancel : JButton
          - buttonOK : JButton
          - codeSerie : JTextField
          - contentPane : JPanel
          - dateDebut : JXDatePicker
          - dateFin : JXDatePicker
          - fileChooser : JFileChooser
          + AddBadgeDialog()
          + getCodeSerie()
          + getDateDebut()
          + getDateFin()
          + getFileChooser()
          + getIcon()
          {static} + main()
          + postConstruct()
          + propertyChange()
          - onCancel()
          - onOK()
      }
    }
  }
  

  namespace fr.cnam.foad.nfa035.badges.gui {
    namespace view {
      class fr.cnam.foad.nfa035.badges.gui.view.BadgeWalletGUI {
          - button1 : JButton
          - panelBas : JPanel
          - panelHaut : JPanel
          - panelImageContainer : JPanel
          - panelParent : JPanel
          - scrollBas : JScrollPane
          - scrollHaut : JScrollPane
          - table1 : JTable
          - tableList : List<DigitalBadge>
          + BadgeWalletGUI()
          + delegateSetAddedBadge()
          + getIcon()
          + getPanelHaut()
          + getPanelImageContainer()
          + getPanelParent()
          + getScrollHaut()
          + getTable1()
          + getTableList()
          + getTableModel()
          + postConstruct()
          + setBadgePanel()
          + setPanelImageContainer()
          + setTableList()
          - createUIComponents()
          - getInstance()
      }
    }
  }
  

  namespace fr.cnam.foad.nfa035.badges.gui {
    namespace view {
      class fr.cnam.foad.nfa035.badges.gui.view.DisplayedBadgeHolder {
          + getDisplayedBadge()
          + setDisplayedBadge()
      }
    }
  }
  

  fr.cnam.foad.nfa035.badges.gui.view.AddBadgeDialog .up.|> java.beans.PropertyChangeListener
  fr.cnam.foad.nfa035.badges.gui.view.AddBadgeDialog -up-|> javax.swing.JDialog
  fr.cnam.foad.nfa035.badges.gui.view.AddBadgeDialog o-- fr.cnam.foad.nfa035.badges.gui.controller.AddBadgeDialogController : addBadgeController
  fr.cnam.foad.nfa035.badges.gui.view.AddBadgeDialog o-- fr.cnam.foad.nfa035.badges.gui.view.BadgeWalletGUI : badgeWallet
  fr.cnam.foad.nfa035.badges.gui.view.AddBadgeDialog o-- fr.cnam.foad.nfa035.badges.gui.view.DisplayedBadgeHolder : displayedBadgeHolder
  fr.cnam.foad.nfa035.badges.gui.view.BadgeWalletGUI o-- fr.cnam.foad.nfa035.badges.gui.view.AddBadgeDialog : addBadgeDialog
  fr.cnam.foad.nfa035.badges.gui.view.BadgeWalletGUI o-- fr.cnam.foad.nfa035.badges.gui.components.BadgePanel : badgePanel
  fr.cnam.foad.nfa035.badges.gui.view.BadgeWalletGUI o-- fr.cnam.foad.nfa035.badges.gui.controller.BadgeWalletController : badgesWalletController
  fr.cnam.foad.nfa035.badges.gui.view.BadgeWalletGUI o-- fr.cnam.foad.nfa035.badges.gui.model.BadgesModel : tableModel
  fr.cnam.foad.nfa035.badges.gui.view.DisplayedBadgeHolder o-- fr.cnam.foad.nfa035.badges.wallet.model.DigitalBadge : displayedBadge


right footer


PlantUML diagram generated by SketchIt! (https://bitbucket.org/pmesmeur/sketch.it)
For more information about this tool, please contact philippe.mesmeur@gmail.com
endfooter

@enduml
